{
  "defaultSeverity": "error",
  "extends": [
    "tslint:recommended"
  ],
  "jsRules": {},
  "rules": {
    "quotemark": [true, "single", "jsx-double"],
    "object-literal-sort-keys": false,
    "no-console": [false],
    "ordered-imports": [false],
    "max-line-length": [true, 80]
  },
  "rulesDirectory": []
}